%YAML 1.1
%TAG !u! tag:unity3d.com,2011:
--- !u!114 &453700594179218413
MonoBehaviour:
  m_ObjectHideFlags: 0
  m_CorrespondingSourceObject: {fileID: 0}
  m_PrefabInstance: {fileID: 0}
  m_PrefabAsset: {fileID: 0}
  m_GameObject: {fileID: 1991614957625356579}
  m_Enabled: 1
  m_EditorHideFlags: 0
  m_Script: {fileID: 11500000, guid: c9506126892bebc26affccc80df43c64, type: 3}
  m_Name: 
  m_EditorClassIdentifier: 
  handleMultipleInstances: 0
  persistant: 0
  trs: {fileID: 3426933345830203474}
  camera: {fileID: 6354595774533719685}
  rotateRate: 15
--- !u!1001 &441536968332075721
PrefabInstance:
  m_ObjectHideFlags: 0
  serializedVersion: 2
  m_Modification:
    m_TransformParent: {fileID: 0}
    m_Modifications:
    - target: {fileID: 2126548710220354538, guid: 2439c99796dabaf27b6e07955ac53615, type: 3}
      propertyPath: m_Name
      value: First Person Camera
      objectReference: {fileID: 0}
    - target: {fileID: 3003423970163987099, guid: 2439c99796dabaf27b6e07955ac53615, type: 3}
      propertyPath: m_RootOrder
      value: 0
      objectReference: {fileID: 0}
    - target: {fileID: 3003423970163987099, guid: 2439c99796dabaf27b6e07955ac53615, type: 3}
      propertyPath: m_LocalPosition.x
      value: 0
      objectReference: {fileID: 0}
    - target: {fileID: 3003423970163987099, guid: 2439c99796dabaf27b6e07955ac53615, type: 3}
      propertyPath: m_LocalPosition.y
      value: 10
      objectReference: {fileID: 0}
    - target: {fileID: 3003423970163987099, guid: 2439c99796dabaf27b6e07955ac53615, type: 3}
      propertyPath: m_LocalPosition.z
      value: -15
      objectReference: {fileID: 0}
    - target: {fileID: 3003423970163987099, guid: 2439c99796dabaf27b6e07955ac53615, type: 3}
      propertyPath: m_LocalRotation.w
      value: 0.96592414
      objectReference: {fileID: 0}
    - target: {fileID: 3003423970163987099, guid: 2439c99796dabaf27b6e07955ac53615, type: 3}
      propertyPath: m_LocalRotation.x
      value: 0.25882527
      objectReference: {fileID: 0}
    - target: {fileID: 3003423970163987099, guid: 2439c99796dabaf27b6e07955ac53615, type: 3}
      propertyPath: m_LocalRotation.y
      value: -0
      objectReference: {fileID: 0}
    - target: {fileID: 3003423970163987099, guid: 2439c99796dabaf27b6e07955ac53615, type: 3}
      propertyPath: m_LocalRotation.z
      value: -0
      objectReference: {fileID: 0}
    - target: {fileID: 3003423970163987099, guid: 2439c99796dabaf27b6e07955ac53615, type: 3}
      propertyPath: m_LocalEulerAnglesHint.x
      value: 30
      objectReference: {fileID: 0}
    - target: {fileID: 3003423970163987099, guid: 2439c99796dabaf27b6e07955ac53615, type: 3}
      propertyPath: m_LocalEulerAnglesHint.y
      value: 0
      objectReference: {fileID: 0}
    - target: {fileID: 3003423970163987099, guid: 2439c99796dabaf27b6e07955ac53615, type: 3}
      propertyPath: m_LocalEulerAnglesHint.z
      value: 0
      objectReference: {fileID: 0}
    m_RemovedComponents:
    - {fileID: 6498264182966112088, guid: 2439c99796dabaf27b6e07955ac53615, type: 3}
  m_SourcePrefab: {fileID: 100100000, guid: 2439c99796dabaf27b6e07955ac53615, type: 3}
--- !u!1 &1991614957625356579 stripped
GameObject:
  m_CorrespondingSourceObject: {fileID: 2126548710220354538, guid: 2439c99796dabaf27b6e07955ac53615, type: 3}
  m_PrefabInstance: {fileID: 441536968332075721}
  m_PrefabAsset: {fileID: 0}
--- !u!4 &3426933345830203474 stripped
Transform:
  m_CorrespondingSourceObject: {fileID: 3003423970163987099, guid: 2439c99796dabaf27b6e07955ac53615, type: 3}
  m_PrefabInstance: {fileID: 441536968332075721}
  m_PrefabAsset: {fileID: 0}
--- !u!20 &6354595774533719685 stripped
Camera:
  m_CorrespondingSourceObject: {fileID: 6778102950924727372, guid: 2439c99796dabaf27b6e07955ac53615, type: 3}
  m_PrefabInstance: {fileID: 441536968332075721}
  m_PrefabAsset: {fileID: 0}
