%YAML 1.1
%TAG !u! tag:unity3d.com,2011:
--- !u!114 &7350595764671472603
MonoBehaviour:
  m_ObjectHideFlags: 0
  m_CorrespondingSourceObject: {fileID: 0}
  m_PrefabInstance: {fileID: 0}
  m_PrefabAsset: {fileID: 0}
  m_GameObject: {fileID: 838300120926797687}
  m_Enabled: 1
  m_EditorHideFlags: 0
  m_Script: {fileID: 11500000, guid: 5e17cc7b04cf236e5a09cf14208a5e72, type: 3}
  m_Name: 
  m_EditorClassIdentifier: 
  usedCount: 0
  limitUses: 0
  maxUseCount: 0
  anim: {fileID: 0}
  attackAnimStateName: 
--- !u!1001 &8275724555261040733
PrefabInstance:
  m_ObjectHideFlags: 0
  serializedVersion: 2
  m_Modification:
    m_TransformParent: {fileID: 0}
    m_Modifications:
    - target: {fileID: 8753724605900646186, guid: 0e01d66eb7aadc18f9839c027a934998, type: 3}
      propertyPath: m_Name
      value: Sword
      objectReference: {fileID: 0}
    - target: {fileID: 8753724605900646187, guid: 0e01d66eb7aadc18f9839c027a934998, type: 3}
      propertyPath: m_RootOrder
      value: 0
      objectReference: {fileID: 0}
    - target: {fileID: 8753724605900646187, guid: 0e01d66eb7aadc18f9839c027a934998, type: 3}
      propertyPath: m_LocalPosition.x
      value: 0
      objectReference: {fileID: 0}
    - target: {fileID: 8753724605900646187, guid: 0e01d66eb7aadc18f9839c027a934998, type: 3}
      propertyPath: m_LocalPosition.y
      value: 0
      objectReference: {fileID: 0}
    - target: {fileID: 8753724605900646187, guid: 0e01d66eb7aadc18f9839c027a934998, type: 3}
      propertyPath: m_LocalPosition.z
      value: 0
      objectReference: {fileID: 0}
    - target: {fileID: 8753724605900646187, guid: 0e01d66eb7aadc18f9839c027a934998, type: 3}
      propertyPath: m_LocalRotation.w
      value: 1
      objectReference: {fileID: 0}
    - target: {fileID: 8753724605900646187, guid: 0e01d66eb7aadc18f9839c027a934998, type: 3}
      propertyPath: m_LocalRotation.x
      value: 0
      objectReference: {fileID: 0}
    - target: {fileID: 8753724605900646187, guid: 0e01d66eb7aadc18f9839c027a934998, type: 3}
      propertyPath: m_LocalRotation.y
      value: 0
      objectReference: {fileID: 0}
    - target: {fileID: 8753724605900646187, guid: 0e01d66eb7aadc18f9839c027a934998, type: 3}
      propertyPath: m_LocalRotation.z
      value: 0
      objectReference: {fileID: 0}
    - target: {fileID: 8753724605900646187, guid: 0e01d66eb7aadc18f9839c027a934998, type: 3}
      propertyPath: m_LocalEulerAnglesHint.x
      value: 0
      objectReference: {fileID: 0}
    - target: {fileID: 8753724605900646187, guid: 0e01d66eb7aadc18f9839c027a934998, type: 3}
      propertyPath: m_LocalEulerAnglesHint.y
      value: 0
      objectReference: {fileID: 0}
    - target: {fileID: 8753724605900646187, guid: 0e01d66eb7aadc18f9839c027a934998, type: 3}
      propertyPath: m_LocalEulerAnglesHint.z
      value: 0
      objectReference: {fileID: 0}
    m_RemovedComponents:
    - {fileID: 4645491996866987785, guid: 0e01d66eb7aadc18f9839c027a934998, type: 3}
  m_SourcePrefab: {fileID: 100100000, guid: 0e01d66eb7aadc18f9839c027a934998, type: 3}
--- !u!1 &838300120926797687 stripped
GameObject:
  m_CorrespondingSourceObject: {fileID: 8753724605900646186, guid: 0e01d66eb7aadc18f9839c027a934998, type: 3}
  m_PrefabInstance: {fileID: 8275724555261040733}
  m_PrefabAsset: {fileID: 0}
